schedule.upd file
  2 
TYPE        NUM  NAME     	DAY YEAR 	COND 		NAME  		CHG_TYPE  COND	   CHG_VALUE  NUM_TOT 
land_use     1  no_practice  	 0   0  	1800's_landuse	  
land_use     1  cons_practice  	 0   0  	1930's_consprac	  