hydrology.res: Reservoir properties - asdf;lj
     NUM         NAME   IYRES   MORES     PSA    PVOL     ESA    EVOL       K   ENRSV     BR1     BR2   ACOEF    FRAC
       1 reservoir001       0       0  120.00   60.00  400.00  150.00    0.50    0.80    0.00    0.00    1.00    1.00
