schedule.upd file
  0 
NAME       NUM  NAME     DAY YEAR COND 	NAME  		CHG_TYPE  COND	   CHG_VALUE  NUM_TOT 
parameters   3	autocal  90  2006 null 
					cn2		abschg	  null           3       2     1   -2
					esco		absval    null          .8       2     1   -2
					slope		pctchg    null        -20.       2     1   -2
structure    1	terrace   1  2007 null
					level_bench	new       null           0       1     2
land_use_mgt 1  land_use  1  2010 null
					lu_2016		file      lu_2016        0       0
fire 	     1  forest    0   0   pine_fire
					total_burn      null      null           0       0
 