channel.cha: Channel properties - Little River Experimental Watershed
NUMB   NAME   EQN     W       D      S       L     N    K    COV1    COV2     WDR  ALPHA_BNK  ICANAL    ONCO    OPCO    SIDE  BNK_BD  BED_BD  BNK_KD  BED_KD BNK_D50 BED_D50   TC_BNK  TC_BED EROD1 EROD2 EROD3 EROD4 EROD5 EROD6 EROD7 EROD8 EROD9 EROD10 EROD11 EROD12
1      CHA1     0  3.45  0.3556 0.0090  0.1116 0.014    0     0.5     0.5     9.7        0.1       0     5.0     0.2     2.0     1.5     1.5     0.5     0.5     1.5     1.5     0.05    0.05     0    0    0    0    0    0    0    0    0    0    0    0
