reservoir.res: Reservoir properties - LREW_HRU-lte
    RES_NUMB    RES_NAME     RES_INI     RES_HYD     RELEASE     RES_SED     RES_NUT     RES_PST
           1reservoir001           1           1           1           1           1           1
